<?xml version="1.0" standalone="no"?>
<!DOCTYPE svg PUBLIC "-//W3C//DTD SVG 20010904//EN"
 "http://www.w3.org/TR/2001/REC-SVG-20010904/DTD/svg10.dtd">
<svg version="1.0" xmlns="http://www.w3.org/2000/svg"
 width="154.000000pt" height="154.000000pt" viewBox="0 0 154.000000 154.000000"
 preserveAspectRatio="xMidYMid meet">
<metadata>
Created by potrace 1.11, written by Peter Selinger 2001-2013
</metadata>
<g transform="translate(0.000000,154.000000) scale(0.100000,-0.100000)"
fill="#000000" stroke="none">
<path d="M60 1095 c0 -17 8 -29 25 -37 24 -11 25 -14 20 -82 -12 -178 -28
-230 -78 -254 -28 -14 -28 -15 -25 -93 2 -47 7 -79 14 -79 6 0 20 22 33 49
l22 50 182 0 c100 0 192 0 205 1 18 0 22 6 22 34 0 30 -3 35 -27 38 l-28 3 0
163 c-1 161 -1 163 22 168 17 5 23 13 23 35 l0 29 -205 0 -205 0 0 -25z m275
-210 l0 -160 -92 -3 c-51 -1 -93 -1 -93 1 0 3 9 25 20 49 11 26 22 79 26 124
5 76 10 133 13 145 0 3 29 5 63 5 l63 -1 0 -160z"/>
<path d="M520 1095 c0 -19 8 -29 28 -38 l27 -12 1 -167 c0 -112 -3 -168 -10
-169 -6 -1 -18 -2 -26 -3 -17 -1 -27 -46 -12 -55 6 -3 51 -5 101 -3 l91 3 -3
27 c-2 15 -9 28 -15 28 -7 1 -17 2 -23 3 -22 2 -1 32 84 120 48 50 90 91 93
91 2 0 4 -47 4 -104 0 -102 0 -104 -25 -110 -19 -5 -24 -12 -23 -31 2 -25 4
-25 90 -25 48 0 91 -1 96 -2 4 -2 8 9 10 25 3 23 -1 28 -25 33 l-29 6 1 165 0
165 28 14 c18 10 27 23 27 40 l0 25 -97 -3 c-93 -3 -98 -4 -101 -25 -2 -16 4
-26 22 -35 14 -6 26 -16 26 -22 0 -6 -43 -54 -95 -106 l-95 -95 0 106 c0 100
1 107 22 116 14 6 23 19 23 36 l2 27 -99 0 -98 0 0 -25z"/>
<path d="M1042 1093 c2 -18 11 -30 29 -36 l26 -10 0 -164 c0 -172 -1 -176 -47
-182 -5 0 -10 -12 -10 -25 0 -21 5 -25 38 -28 20 -2 65 -1 100 0 58 3 62 5 62
28 0 17 -7 25 -25 30 l-25 6 0 167 0 167 93 -1 92 0 3 -167 c2 -109 -1 -168
-8 -169 -5 -1 -16 -2 -22 -3 -7 0 -14 -13 -16 -28 -3 -26 -3 -26 70 -30 109
-5 128 -1 128 26 0 14 -9 27 -24 34 -23 10 -23 11 -23 175 1 163 1 166 24 176
15 7 23 19 23 36 l0 25 -245 0 -245 0 2 -27z"/>
<path d="M326 591 c-33 -19 -45 -45 -39 -81 6 -36 27 -54 56 -46 30 7 40 47
19 77 -10 15 -21 19 -38 15 -36 -9 -29 3 11 20 19 8 35 19 35 24 0 14 -10 12
-44 -9z m18 -57 c22 -21 20 -41 -4 -54 -26 -14 -46 20 -30 50 13 24 14 24 34
4z"/>
<path d="M408 564 c-4 -3 1 -29 12 -56 18 -49 18 -50 -1 -69 -15 -15 -16 -19
-4 -19 9 0 21 15 29 33 7 17 21 49 30 70 9 22 11 37 5 37 -5 0 -16 -15 -24
-32 -12 -29 -14 -31 -20 -13 -15 46 -21 56 -27 49z"/>
<path d="M526 541 c16 -28 16 -31 0 -55 -9 -14 -12 -26 -7 -26 6 0 15 8 20 18
10 16 12 16 26 -2 20 -26 31 -13 12 15 -14 19 -14 24 0 45 10 16 11 24 4 24
-6 0 -14 -7 -18 -16 -5 -13 -8 -12 -25 5 -27 30 -32 26 -12 -8z"/>
<path d="M636 563 c-10 -11 -7 -103 4 -103 6 0 10 20 10 45 0 42 2 45 27 45
14 0 24 2 22 4 -8 8 -57 15 -63 9z"/>
<path d="M748 559 c-10 -5 -18 -15 -18 -21 0 -7 5 -6 15 2 15 13 54 5 41 -8
-4 -4 -11 -7 -14 -7 -4 -1 -17 -4 -29 -9 -45 -15 -19 -57 32 -52 24 3 29 8 30
35 1 30 -18 71 -33 71 -4 0 -15 -5 -24 -11z m40 -61 c-5 -15 -48 -24 -48 -10
0 14 12 22 33 22 10 0 17 -5 15 -12z"/>
<path d="M883 562 c-18 -3 -23 -10 -23 -36 0 -17 -5 -37 -12 -44 -15 -15 -7
-24 11 -12 13 7 17 23 20 68 1 6 8 12 16 12 11 0 15 -12 15 -45 0 -25 5 -45
10 -45 6 0 10 22 10 49 0 51 -8 60 -47 53z"/>
<path d="M980 560 c-24 -6 -24 -6 -3 -12 17 -5 21 -12 20 -47 -1 -23 2 -40 8
-38 6 2 10 21 10 42 0 29 5 40 20 46 11 4 16 8 10 9 -5 1 -17 3 -25 4 -8 2
-26 0 -40 -4z"/>
<path d="M1085 554 c-8 -9 -15 -26 -15 -39 0 -23 23 -55 40 -55 17 0 40 12 40
21 0 6 -8 6 -18 0 -13 -7 -23 -6 -30 1 -20 20 -13 28 23 28 37 0 42 7 23 32
-20 24 -46 29 -63 12z m50 -13 c3 -5 1 -13 -5 -16 -15 -9 -43 3 -35 15 8 13
32 13 40 1z"/>
<path d="M1220 560 c-23 -5 -25 -11 -27 -67 -2 -34 2 -65 7 -68 6 -4 10 5 10
20 0 15 4 24 10 20 16 -10 48 4 55 25 8 24 -3 67 -18 73 -7 2 -23 1 -37 -3z
m36 -35 c7 -29 -11 -56 -32 -48 -14 5 -20 54 -7 66 14 15 33 6 39 -18z"/>
<path d="M1319 553 c-6 -101 4 -112 42 -49 l19 31 0 -37 c0 -57 17 -46 19 12
1 61 -11 70 -35 25 -22 -41 -32 -45 -29 -11 2 13 -1 29 -6 37 -7 11 -9 9 -10
-8z"/>
<path d="M1463 559 c-14 -5 -18 -17 -18 -53 -1 -46 0 -47 16 -27 20 24 39 27
39 7 0 -8 5 -18 10 -21 6 -4 10 14 10 47 0 57 -9 64 -57 47z m37 -28 c0 -14
-5 -18 -20 -14 -11 3 -20 12 -20 19 0 8 9 14 20 14 13 0 20 -7 20 -19z"/>
</g>
</svg>
