<svg width="65" height="55" viewBox="0 0 65 55" fill="none" xmlns="http://www.w3.org/2000/svg">
<path d="M1.31332 49.2445C1.03977 49.922 1.20381 50.6976 1.72846 51.2058C2.2529 51.7143 3.03338 51.8544 3.70188 51.5597L12.4119 47.7213C15.6342 49.804 19.3279 51.1441 23.1585 51.6131C24.177 51.7379 25.1884 51.7994 26.1902 51.8028C29.8814 53.7576 33.9826 54.7667 38.1207 54.7667C39.808 54.7667 41.5011 54.5993 43.1745 54.2609C46.9568 53.4957 50.5354 51.8723 53.586 49.5455L62.568 52.6954C63.2574 52.9369 64.0244 52.7372 64.508 52.1894C64.9914 51.6416 65.0948 50.8558 64.7694 50.2016L60.4656 41.5515C63.3761 36.2663 64.3177 30.1459 63.1153 24.2039C60.7099 12.3156 50.2816 3.79537 38.2181 3.75452C35.4971 2.31227 32.507 1.36618 29.3588 0.980879C22.5966 0.1526 15.9167 2.00753 10.5494 6.20368C5.18228 10.3998 1.7702 16.4348 0.942375 23.1972C0.205429 29.2146 1.62008 35.2437 4.93229 40.2865L1.31332 49.2445ZM59.596 24.9155C60.6857 30.3016 59.7255 35.8588 56.8917 40.563C56.5751 41.0885 56.5488 41.7395 56.8221 42.2891L59.5863 47.8447L53.8387 45.8291C53.2438 45.6204 52.5831 45.7391 52.0979 46.1419C49.3353 48.4347 46.0033 50.0253 42.4624 50.7418C39.5286 51.3353 36.5249 51.3131 33.6368 50.7101C43.0046 47.864 50.3103 39.7235 51.5749 29.3968C52.4029 22.6346 50.548 15.9547 46.3521 10.5877C45.6955 9.74793 44.994 8.95601 44.2516 8.21435C51.8953 10.4413 57.9453 16.7588 59.596 24.9155ZM4.5057 23.633C5.21706 17.8227 8.14869 12.6371 12.7604 9.03186C17.372 5.42634 23.1116 3.83284 28.9221 4.5442C34.7324 5.25557 39.9179 8.18719 43.5232 12.7989C47.1285 17.4105 48.7225 23.1501 48.0111 28.9606C46.6523 40.0552 37.1806 48.2143 26.2746 48.2134C21.7761 48.2132 17.3069 46.8086 13.6309 44.2125C13.1475 43.8712 12.4315 43.7893 11.8711 44.0361L6.29735 46.4924L8.62151 40.7387C8.8513 40.1696 8.77478 39.5229 8.4182 39.0233C5.22716 34.5534 3.83787 29.0878 4.5057 23.633ZM23.989 26.2967C23.989 25.0573 24.9937 24.0526 26.233 24.0526C27.4724 24.0526 28.4771 25.0573 28.4771 26.2967C28.4771 27.5361 27.4724 28.5407 26.233 28.5407C24.9937 28.5407 23.989 27.5361 23.989 26.2967ZM34.2593 26.2967C34.2593 25.0573 35.264 24.0526 36.5034 24.0526C37.7428 24.0526 38.7474 25.0573 38.7474 26.2967C38.7474 27.5361 37.7428 28.5407 36.5034 28.5407C35.2642 28.5407 34.2593 27.5361 34.2593 26.2967ZM13.7691 26.2967C13.7691 25.0573 14.7738 24.0526 16.0132 24.0526C17.2526 24.0526 18.2572 25.0573 18.2572 26.2967C18.2572 27.5361 17.2526 28.5407 16.0132 28.5407C14.7738 28.5407 13.7691 27.5361 13.7691 26.2967Z" fill="#F98032"/>
</svg>
