<svg width="30" height="26" viewBox="0 0 30 26" fill="none" xmlns="http://www.w3.org/2000/svg">
<path d="M12.0596 16.913C12.0596 16.1215 12.1202 16.4859 8.1517 8.03444C7.3409 6.30824 5.0192 6.30484 4.207 8.03444C0.204941 16.5583 0.300491 16.1465 0.300491 16.913C0.300491 19.074 2.9323 20.8261 6.1796 20.8261C9.4269 20.8261 12.0596 19.074 12.0596 16.913ZM6.1796 9.08664L9.4871 16.1303H2.8721L6.1796 9.08664ZM29.6987 16.913C29.6987 16.1215 29.7602 16.4859 25.7917 8.03444C24.9809 6.30824 22.6592 6.30484 21.847 8.03444C17.8449 16.5583 17.9405 16.1465 17.9405 16.913C17.9405 19.074 20.5723 20.8261 23.8196 20.8261C27.0669 20.8261 29.6987 19.074 29.6987 16.913ZM20.5121 16.1303L23.8196 9.08664L27.1271 16.1303H20.5121ZM24.5546 22.3914H16.4696V7.97384C17.5496 7.47044 18.3604 6.43394 18.6006 5.17344H24.5546C24.9607 5.17344 25.2896 4.82314 25.2896 4.39074V2.82554C25.2896 2.39304 24.9607 2.04284 24.5546 2.04284H17.923C17.2523 1.09784 16.1981 0.477539 14.9996 0.477539C13.8011 0.477539 12.7468 1.09784 12.0761 2.04284H5.4446C5.0385 2.04284 4.7096 2.39304 4.7096 2.82554V4.39074C4.7096 4.82314 5.0385 5.17344 5.4446 5.17344H11.3985C11.6388 6.43344 12.4491 7.47044 13.5296 7.97384V22.3914H5.4446C5.0385 22.3914 4.7096 22.7417 4.7096 23.1741V24.7393C4.7096 25.1717 5.0385 25.522 5.4446 25.522H24.5546C24.9607 25.522 25.2896 25.1717 25.2896 24.7393V23.1741C25.2896 22.7417 24.9607 22.3914 24.5546 22.3914Z" fill="#71CB42"/>
</svg>
