<svg width="21" height="21" viewBox="0 0 21 21" fill="none" xmlns="http://www.w3.org/2000/svg">
<path fill-rule="evenodd" clip-rule="evenodd" d="M14.5523 13.1999H13.659L13.3485 12.8916C14.4454 11.6125 15.1125 9.95426 15.1125 8.13739C15.1125 4.09864 11.8388 0.824886 7.80001 0.824886C3.76126 0.824886 0.487511 4.09864 0.487511 8.13739C0.487511 12.1761 3.76126 15.4499 7.80001 15.4499C9.61689 15.4499 11.274 14.7839 12.5531 13.6881L12.8636 13.9964V14.8874L18.4864 20.5023L20.1638 18.8249L14.5523 13.1999ZM7.80002 13.1999C5.00327 13.1999 2.73752 10.9342 2.73752 8.13744C2.73752 5.34181 5.00327 3.07494 7.80002 3.07494C10.5956 3.07494 12.8625 5.34181 12.8625 8.13744C12.8625 10.9342 10.5956 13.1999 7.80002 13.1999Z" fill="#BDBDBD"/>
</svg>
