<svg width="42" height="42" viewBox="0 0 42 42" fill="none" xmlns="http://www.w3.org/2000/svg">
<path d="M16.0029 17.5243C17.076 17.5243 17.9489 16.6511 17.9489 15.578C17.9489 14.5048 17.076 13.632 16.0029 13.632C14.9297 13.632 14.0569 14.5048 14.0569 15.578C14.0569 16.6511 14.9297 17.5243 16.0029 17.5243Z" fill="#71CB42"/>
<path d="M25.9973 24.4757C24.9245 24.4757 24.0513 25.3489 24.0513 26.422C24.0513 27.4952 24.9245 28.368 25.9973 28.368C27.0704 28.368 27.9433 27.4952 27.9433 26.422C27.9433 25.3489 27.0704 24.4757 25.9973 24.4757Z" fill="#71CB42"/>
<path d="M39.6256 23.9506L42 21L39.6256 18.0494L40.9788 14.509L37.8036 12.4386L37.9901 8.65398L34.333 7.66704L33.346 4.00992L29.5614 4.19641L27.491 1.02122L23.9502 2.37442L21 0L18.0498 2.37442L14.509 1.02122L12.4386 4.19641L8.65398 4.00992L7.66704 7.66704L4.00992 8.65398L4.19641 12.4383L1.02122 14.509L2.37442 18.0494L0 21L2.37442 23.9506L1.02122 27.491L4.19641 29.5614L4.00992 33.346L7.66704 34.333L8.65398 37.9901L12.4386 37.8036L14.5093 40.9788L18.0498 39.6256L21 42L23.9502 39.6256L27.491 40.9788L29.5614 37.8036L33.346 37.9901L34.333 34.333L37.9901 33.346L37.8036 29.5617L40.9788 27.491L39.6256 23.9506ZM16.0028 11.153C18.4426 11.153 20.4277 13.1381 20.4277 15.5779C20.4277 18.018 18.4429 20.0031 16.0028 20.0031C13.563 20.0031 11.5776 18.018 11.5776 15.5779C11.5776 13.1381 13.563 11.153 16.0028 11.153ZM13.1388 30.6566L11.386 28.9038L28.5946 11.6952L30.3474 13.448L13.1388 30.6566ZM25.9972 30.847C23.5574 30.847 21.5723 28.8619 21.5723 26.4221C21.5723 23.982 23.5574 21.9969 25.9972 21.9969C28.4373 21.9969 30.4224 23.982 30.4224 26.4221C30.4224 28.8619 28.4373 30.847 25.9972 30.847Z" fill="#71CB42"/>
</svg>
