<svg width="35" height="35" viewBox="0 0 35 35" fill="none" xmlns="http://www.w3.org/2000/svg">
<path d="M12.5271 24.1938L19.2063 17.5L12.5271 10.8062L14.5833 8.75L23.3333 17.5L14.5833 26.25L12.5271 24.1938Z" fill="#BDBDBD"/>
</svg>
