<svg width="21" height="25" viewBox="0 0 21 25" fill="none" xmlns="http://www.w3.org/2000/svg">
<path d="M10.125 25C11.5 25 12.625 23.875 12.625 22.5H7.625C7.625 23.875 8.75 25 10.125 25ZM17.625 17.5V11.25C17.625 7.4125 15.5875 4.2 12 3.35V2.5C12 1.4625 11.1625 0.625 10.125 0.625C9.0875 0.625 8.25 1.4625 8.25 2.5V3.35C4.675 4.2 2.625 7.4 2.625 11.25V17.5L0.125 20V21.25H20.125V20L17.625 17.5ZM15.125 18.75H5.125V11.25C5.125 8.15 7.0125 5.625 10.125 5.625C13.2375 5.625 15.125 8.15 15.125 11.25V18.75Z" fill="#BDBDBD"/>
</svg>
