<svg width="21" height="22" viewBox="0 0 21 22" fill="none" xmlns="http://www.w3.org/2000/svg">
<path fill-rule="evenodd" clip-rule="evenodd" d="M20.8542 2.91667L18.8125 0.875L10.6458 9.04167L2.47917 0.875L0.4375 2.91667L8.60417 11.0833L0.4375 19.25L2.47917 21.2917L10.6458 13.125L18.8125 21.2917L20.8542 19.25L12.6875 11.0833L20.8542 2.91667Z" fill="#212121"/>
</svg>
