<svg width="21" height="21" viewBox="0 0 21 21" fill="none" xmlns="http://www.w3.org/2000/svg">
<path fill-rule="evenodd" clip-rule="evenodd" d="M20.4165 2.04167L18.3749 0L10.2082 8.16667L2.04154 0L-0.00012207 2.04167L8.16655 10.2083L-0.00012207 18.375L2.04154 20.4167L10.2082 12.25L18.3749 20.4167L20.4165 18.375L12.2499 10.2083L20.4165 2.04167Z" fill="#BDBDBD"/>
</svg>
