<svg width="18" height="16" viewBox="0 0 18 16" fill="none" xmlns="http://www.w3.org/2000/svg">
<path d="M16.5 8V14C16.5 14.3978 16.342 14.7794 16.0607 15.0607C15.7794 15.342 15.3978 15.5 15 15.5H3C2.60218 15.5 2.22064 15.342 1.93934 15.0607C1.65804 14.7794 1.5 14.3978 1.5 14V8C1.30109 8 1.11032 7.92098 0.96967 7.78033C0.829018 7.63968 0.75 7.44891 0.75 7.25V5C0.75 4.60218 0.908035 4.22064 1.18934 3.93934C1.47064 3.65804 1.85218 3.5 2.25 3.5H4.6275C4.54274 3.25905 4.49962 3.00542 4.5 2.75C4.5 2.15326 4.73705 1.58097 5.15901 1.15901C5.58097 0.737053 6.15326 0.5 6.75 0.5C7.5 0.5 8.16 0.875 8.5725 1.43V1.4225L9 2L9.4275 1.4225V1.43C9.84 0.875 10.5 0.5 11.25 0.5C11.8467 0.5 12.419 0.737053 12.841 1.15901C13.2629 1.58097 13.5 2.15326 13.5 2.75C13.5004 3.00542 13.4573 3.25905 13.3725 3.5H15.75C16.1478 3.5 16.5294 3.65804 16.8107 3.93934C17.092 4.22064 17.25 4.60218 17.25 5V7.25C17.25 7.44891 17.171 7.63968 17.0303 7.78033C16.8897 7.92098 16.6989 8 16.5 8ZM3 14H8.25V8H3V14ZM15 14V8H9.75V14H15ZM6.75 2C6.55109 2 6.36032 2.07902 6.21967 2.21967C6.07902 2.36032 6 2.55109 6 2.75C6 2.94891 6.07902 3.13968 6.21967 3.28033C6.36032 3.42098 6.55109 3.5 6.75 3.5C6.94891 3.5 7.13968 3.42098 7.28033 3.28033C7.42098 3.13968 7.5 2.94891 7.5 2.75C7.5 2.55109 7.42098 2.36032 7.28033 2.21967C7.13968 2.07902 6.94891 2 6.75 2ZM11.25 2C11.0511 2 10.8603 2.07902 10.7197 2.21967C10.579 2.36032 10.5 2.55109 10.5 2.75C10.5 2.94891 10.579 3.13968 10.7197 3.28033C10.8603 3.42098 11.0511 3.5 11.25 3.5C11.4489 3.5 11.6397 3.42098 11.7803 3.28033C11.921 3.13968 12 2.94891 12 2.75C12 2.55109 11.921 2.36032 11.7803 2.21967C11.6397 2.07902 11.4489 2 11.25 2ZM2.25 5V6.5H8.25V5H2.25ZM9.75 5V6.5H15.75V5H9.75Z" fill="#BDBDBD"/>
</svg>
