<svg width="10" height="16" viewBox="0 0 10 16" fill="none" xmlns="http://www.w3.org/2000/svg">
<path d="M9.26172 2.2625L3.53672 8L9.26172 13.7375L7.49922 15.5L-0.000780106 8L7.49922 0.5L9.26172 2.2625Z" fill="#BDBDBD"/>
</svg>
