<svg width="21" height="3" viewBox="0 0 21 3" fill="none" xmlns="http://www.w3.org/2000/svg">
<path fill-rule="evenodd" clip-rule="evenodd" d="M0.888672 2.23589C0.888672 2.51204 1.11253 2.73589 1.38867 2.73589H20.1109C20.387 2.73589 20.6109 2.51204 20.6109 2.23589V1.26367C20.6109 0.98753 20.387 0.763672 20.1109 0.763672H1.38867C1.11253 0.763672 0.888672 0.98753 0.888672 1.26367V2.23589Z" fill="white"/>
</svg>
