<svg width="10" height="16" viewBox="0 0 10 16" fill="none" xmlns="http://www.w3.org/2000/svg">
<path d="M0.737335 13.7375L6.46233 8L0.737335 2.2625L2.49983 0.5L9.99983 8L2.49983 15.5L0.737335 13.7375Z" fill="#71CB42"/>
</svg>
