<svg width="20" height="25" viewBox="0 0 20 25" fill="none" xmlns="http://www.w3.org/2000/svg">
<path d="M10 24.5C11.375 24.5 12.5 23.375 12.5 22H7.5C7.5 23.375 8.625 24.5 10 24.5ZM17.5 17V10.75C17.5 6.9125 15.4625 3.7 11.875 2.85V2C11.875 0.9625 11.0375 0.125 10 0.125C8.9625 0.125 8.125 0.9625 8.125 2V2.85C4.55 3.7 2.5 6.9 2.5 10.75V17L0 19.5V20.75H20V19.5L17.5 17ZM15 18.25H5V10.75C5 7.65 6.8875 5.125 10 5.125C13.1125 5.125 15 7.65 15 10.75V18.25Z" fill="#BDBDBD"/>
</svg>
