<svg width="16" height="10" viewBox="0 0 16 10" fill="none" xmlns="http://www.w3.org/2000/svg">
<path d="M2.2625 0.738281L8 6.46328L13.7375 0.738281L15.5 2.50078L8 10.0008L0.5 2.50078L2.2625 0.738281Z" fill="#BDBDBD"/>
</svg>
